distribution/Digiblock教程/0 digiblock入门/db_microprogramIII_tb.vcd
$date
	Sat May 22 02:14:40 2021
$end
$version
	Icarus Verilog
$end
$timescale
	1ns
$end
$scope module microprogramIII_tb $end
$var wire 8 ! OUT [7:0] $end
$var reg 8 " IN [7:0] $end
$var reg 1 # clock $end
$var reg 1 $ reset $end
$scope module microprogramIII_tb0 $end
$var wire 8 % IN [7:0] $end
$var wire 1 & I_10 $end
$var wire 1 ' \PC+1 $end
$var wire 1 ( clk $end
$var wire 1 # clock $end
$var wire 1 ) hlt $end
$var wire 1 $ reset $end
$var wire 1 * s1 $end
$var wire 1 + s14 $end
$var wire 1 , s15 $end
$var wire 8 - s20 [7:0] $end
$var wire 8 . s21 [7:0] $end
$var wire 8 / s22 [7:0] $end
$var wire 8 0 s_out [7:0] $end
$var wire 16 1 s9 [15:0] $end
$var wire 4 2 s8 [3:0] $end
$var wire 4 3 s7 [3:0] $end
$var wire 4 4 s6 [3:0] $end
$var wire 8 5 s5 [7:0] $end
$var wire 8 6 s4 [7:0] $end
$var wire 3 7 s33 [2:0] $end
$var wire 3 8 s32 [2:0] $end
$var wire 1 9 s31 $end
$var wire 8 : s30 [7:0] $end
$var wire 1 ; s3 $end
$var wire 8 < s29 [7:0] $end
$var wire 8 = s28 [7:0] $end
$var wire 16 > s27 [15:0] $end
$var wire 8 ? s26 [7:0] $end
$var wire 8 @ s25 [7:0] $end
$var wire 8 A s24 [7:0] $end
$var wire 4 B s23 [3:0] $end
$var wire 8 C s2 [7:0] $end
$var wire 8 D s19 [7:0] $end
$var wire 8 E s18 [7:0] $end
$var wire 4 F s17 [3:0] $end
$var wire 1 G s16 $end
$var wire 8 H s13 [7:0] $end
$var wire 8 I s12 [7:0] $end
$var wire 4 J s11 [3:0] $end
$var wire 8 K s10 [7:0] $end
$var wire 7 L s0 [6:0] $end
$var wire 1 M regw $end
$var wire 1 N memw $end
$var wire 1 O Z_F $end
$var wire 1 P Z $end
$var wire 8 Q Yin [7:0] $end
$var wire 8 R Xin [7:0] $end
$var wire 3 S Ssel [2:0] $end
$var wire 1 T S $end
$var wire 8 U Rin [7:0] $end
$var wire 2 V Rb [1:0] $end
$var wire 2 W Ra [1:0] $end
$var wire 1 X P1 $end
$var wire 8 Y OUT [7:0] $end
$var wire 4 Z OP [3:0] $end
$var wire 8 [ Mout [7:0] $end
$var wire 8 \ Min [7:0] $end
$var wire 8 ] IMM [7:0] $end
$var wire 1 ^ ENout $end
$var wire 8 _ Db [7:0] $end
$var wire 8 ` Da [7:0] $end
$var wire 1 a C_F $end
$var wire 1 b C $end
$var wire 2 c Asel [1:0] $end
$var wire 3 d ALUop [2:0] $end
$scope module CompUnsigned_i19 $end
$var wire 8 e b [7:0] $end
$var wire 8 f a [7:0] $end
$var wire 1 g \> $end
$var wire 1 O \= $end
$var wire 1 h \< $end
$upscope $end
$scope module DIG_Add_i18 $end
$var wire 8 i a [7:0] $end
$var wire 1 j c_i $end
$var wire 9 k temp [8:0] $end
$var wire 8 l s [7:0] $end
$var wire 1 m c_o $end
$var wire 8 n b [7:0] $end
$upscope $end
$scope module DIG_Add_i8 $end
$var wire 1 o c_i $end
$var wire 9 p temp [8:0] $end
$var wire 8 q s [7:0] $end
$var wire 1 a c_o $end
$var wire 8 r b [7:0] $end
$var wire 8 s a [7:0] $end
$upscope $end
$scope module DIG_D_FF_AS_1bit_i1 $end
$var wire 1 ( C $end
$var wire 1 , Clr $end
$var wire 1 ) D $end
$var wire 1 G Q $end
$var wire 1 t Set $end
$var wire 1 u \~Q $end
$var reg 1 v state $end
$upscope $end
$scope module DIG_Mul_unsigned_i12 $end
$var wire 16 w mul [15:0] $end
$var wire 8 x b [7:0] $end
$var wire 8 y a [7:0] $end
$upscope $end
$scope module DIG_RAMDualPort_i2 $end
$var wire 7 z A [6:0] $end
$var wire 1 ( C $end
$var wire 8 { D [7:0] $end
$var wire 1 | ld $end
$var wire 1 * str $end
$var wire 8 } Din [7:0] $end
$upscope $end
$scope module DIG_ROM_128X8_Drom_i26 $end
$var wire 7 ~ A [6:0] $end
$var wire 1 !" sel $end
$var reg 8 "" D [7:0] $end
$upscope $end
$scope module DIG_ROM_16X16_MROM_i16 $end
$var wire 1 #" sel $end
$var wire 4 $" A [3:0] $end
$var reg 16 %" D [15:0] $end
$upscope $end
$scope module DIG_ROM_256X8_ROM_i17 $end
$var wire 1 &" sel $end
$var wire 8 '" A [7:0] $end
$var reg 8 (" D [7:0] $end
$upscope $end
$scope module DIG_RegisterFile_i3 $end
$var wire 1 ( C $end
$var wire 8 )" Da [7:0] $end
$var wire 8 *" Db [7:0] $end
$var wire 2 +" Ra [1:0] $end
$var wire 2 ," Rb [1:0] $end
$var wire 2 -" Rw [1:0] $end
$var wire 1 M we $end
$var wire 8 ." Din [7:0] $end
$upscope $end
$scope module DIG_Register_BUS_i25 $end
$var wire 1 X C $end
$var wire 3 /" D [2:0] $end
$var wire 1 0" en $end
$var wire 3 1" Q [2:0] $end
$var reg 3 2" state [2:0] $end
$upscope $end
$scope module DIG_Register_BUS_i4 $end
$var wire 1 ( C $end
$var wire 4 3" Q [3:0] $end
$var wire 1 4" en $end
$var wire 4 5" D [3:0] $end
$var reg 4 6" state [3:0] $end
$upscope $end
$scope module DIG_Register_BUS_i5 $end
$var wire 1 ( C $end
$var wire 1 ' en $end
$var wire 8 7" Q [7:0] $end
$var wire 8 8" D [7:0] $end
$var reg 8 9" state [7:0] $end
$upscope $end
$scope module DIG_Register_BUS_i6 $end
$var wire 1 ( C $end
$var wire 4 :" D [3:0] $end
$var wire 1 X en $end
$var wire 4 ;" Q [3:0] $end
$var reg 4 <" state [3:0] $end
$upscope $end
$scope module DIG_Register_BUS_i7 $end
$var wire 1 ( C $end
$var wire 8 =" Q [7:0] $end
$var wire 1 ^ en $end
$var wire 8 >" D [7:0] $end
$var reg 8 ?" state [7:0] $end
$upscope $end
$scope module DIG_Sub_i9 $end
$var wire 1 @" c_i $end
$var wire 9 A" temp [8:0] $end
$var wire 8 B" s [7:0] $end
$var wire 1 C" c_o $end
$var wire 8 D" b [7:0] $end
$var wire 8 E" a [7:0] $end
$upscope $end
$scope module Decoder2_i22 $end
$var wire 2 F" sel [1:0] $end
$var wire 1 ^ out_3 $end
$var wire 1 N out_2 $end
$var wire 1 M out_1 $end
$var wire 1 G" out_0 $end
$upscope $end
$scope module DemuxBus2_i21 $end
$var wire 2 H" sel [1:0] $end
$var wire 8 I" out_3 [7:0] $end
$var wire 8 J" out_2 [7:0] $end
$var wire 8 K" out_1 [7:0] $end
$var wire 8 L" out_0 [7:0] $end
$var wire 8 M" in [7:0] $end
$upscope $end
$scope module LogicalLeft_i10 $end
$var wire 4 N" shift [3:0] $end
$var wire 8 O" out [7:0] $end
$var wire 8 P" in [7:0] $end
$upscope $end
$scope module LogicalRight_i14 $end
$var wire 4 Q" shift [3:0] $end
$var wire 8 R" out [7:0] $end
$var wire 8 S" in [7:0] $end
$upscope $end
$scope module Mux_2x1_NBits_i23 $end
$var wire 4 T" in_0 [3:0] $end
$var wire 4 U" in_1 [3:0] $end
$var wire 1 X sel $end
$var reg 4 V" out [3:0] $end
$upscope $end
$scope module Mux_2x1_NBits_i24 $end
$var wire 8 W" in_0 [7:0] $end
$var wire 8 X" in_1 [7:0] $end
$var wire 1 & sel $end
$var reg 8 Y" out [7:0] $end
$upscope $end
$scope module Mux_2x1_NBits_i28 $end
$var wire 8 Z" in_0 [7:0] $end
$var wire 8 [" in_1 [7:0] $end
$var wire 1 ; sel $end
$var reg 8 \" out [7:0] $end
$upscope $end
$scope module Mux_2x1_NBits_i29 $end
$var wire 8 ]" in_0 [7:0] $end
$var wire 8 ^" in_1 [7:0] $end
$var wire 1 + sel $end
$var reg 8 _" out [7:0] $end
$upscope $end
$scope module Mux_4x1_NBits_i20 $end
$var wire 8 `" in_0 [7:0] $end
$var wire 8 a" in_1 [7:0] $end
$var wire 2 b" sel [1:0] $end
$var wire 8 c" in_3 [7:0] $end
$var wire 8 d" in_2 [7:0] $end
$var reg 8 e" out [7:0] $end
$upscope $end
$scope module Mux_4x1_i27 $end
$var wire 1 f" in_0 $end
$var wire 1 b in_1 $end
$var wire 1 P in_2 $end
$var wire 1 T in_3 $end
$var wire 2 g" sel [1:0] $end
$var reg 1 9 out $end
$upscope $end
$scope module Mux_8x1_NBits_i0 $end
$var wire 8 h" in_0 [7:0] $end
$var wire 8 i" in_1 [7:0] $end
$var wire 8 j" in_2 [7:0] $end
$var wire 8 k" in_3 [7:0] $end
$var wire 8 l" in_4 [7:0] $end
$var wire 8 m" in_5 [7:0] $end
$var wire 8 n" in_6 [7:0] $end
$var wire 8 o" in_7 [7:0] $end
$var wire 3 p" sel [2:0] $end
$var reg 8 q" out [7:0] $end
$upscope $end
$scope module Mux_8x1_NBits_i11 $end
$var wire 8 r" in_0 [7:0] $end
$var wire 8 s" in_1 [7:0] $end
$var wire 8 t" in_2 [7:0] $end
$var wire 8 u" in_3 [7:0] $end
$var wire 8 v" in_4 [7:0] $end
$var wire 8 w" in_5 [7:0] $end
$var wire 8 x" in_6 [7:0] $end
$var wire 8 y" in_7 [7:0] $end
$var wire 3 z" sel [2:0] $end
$var reg 8 {" out [7:0] $end
$upscope $end
$scope module RotateLeft_i13 $end
$var wire 8 |" in [7:0] $end
$var wire 8 }" out [7:0] $end
$var wire 4 ~" shift [3:0] $end
$var wire 3 !# num [2:0] $end
$upscope $end
$scope module RotateRight_i15 $end
$var wire 8 "# in [7:0] $end
$var wire 8 ## out [7:0] $end
$var wire 4 $# shift [3:0] $end
$var wire 3 %# num [2:0] $end
$upscope $end
$upscope $end
$upscope $end
$enddefinitions $end
#0
$dumpvars
b0 %#
b0 $#
b0 ##
b0 "#
b0 !#
b0 ~"
b0 }"
b0 |"
b0 {"
b0 z"
b0 y"
b110000 x"
b110000 w"
b0 v"
b0 u"
b11010000 t"
b110000 s"
b0 r"
b0 q"
b0 p"
b0 o"
b0 n"
bx m"
b110000 l"
b0 k"
bx j"
bx i"
b0 h"
b0 g"
1f"
b0 e"
b0 d"
b0 c"
b0 b"
b0 a"
b0 `"
b1 _"
b110000 ^"
b1 ]"
bx \"
b0 ["
bx Z"
b110000 Y"
bx X"
b110000 W"
b11 V"
b11 U"
b0 T"
b0 S"
b0 R"
b0 Q"
b0 P"
b0 O"
b0 N"
b0 M"
b0 L"
b0 K"
b0 J"
b0 I"
b0 H"
1G"
b0 F"
b0 E"
b110000 D"
1C"
b11010000 B"
b111010000 A"
0@"
b0 ?"
b0 >"
b0 ="
b0 <"
b0 ;"
b0 :"
b0 9"
b1 8"
b0 7"
b0 6"
b11 5"
14"
b0 3"
bx1x 2"
bx1x 1"
10"
b10 /"
b0 ."
b0 -"
b0 ,"
b0 +"
bx *"
bx )"
b110000 ("
b0 '"
1&"
b100100000 %"
b0 $"
1#"
b0 ""
1!"
b110000 ~
b0 }
1|
bx {
b110000 z
b0 y
b110000 x
b0 w
0v
1u
0t
b0 s
b110000 r
b110000 q
b110000 p
0o
b0 n
0m
b1 l
b1 k
0j
b1 i
0h
0g
b0 f
b0 e
b0 d
b0 c
xb
0a
bx `
bx _
0^
b110000 ]
b0 \
bx [
b11 Z
b0 Y
1X
b0 W
b0 V
b0 U
xT
b0 S
b0 R
b110000 Q
1P
1O
0N
0M
b110000 L
b0 K
b0 J
b1 I
b1 H
0G
b0 F
b110000 E
b11010000 D
bx C
b0 B
b0 A
b0 @
b0 ?
b0 >
b0 =
b0 <
0;
b0 :
19
b10 8
bx1x 7
b0 6
b0 5
b0 4
b11 3
b0 2
b100100000 1
b0 0
b110000 /
b110000 .
b0 -
0,
0+
0*
0)
0(
1'
0&
b0 %
1$
0#
b0 "
b0 !
$end
#50000
0$
#100000
1$
#110000
b1 U
b1 ."
b1 K"
b10 =
b10 d"
b10 }"
b10000000 :
b10000000 c"
b10000000 ##
b10 ?
b10 e"
b10 y"
0C"
b1 @
b1 u"
b1 -
b1 v"
b1 6
b1 ""
b1 ["
b0 8
b0 /"
0O
1g
b1 5
b1 f
b1 M"
b1 {"
b10 A
b10 O"
b10 `"
b1 >
b1 w
b1 R
b1 s
b1 y
b1 E"
b1 P"
b1 S"
b1 q"
b1 r"
b1 |"
b1 "#
0G"
1M
b0 D
b0 B"
b0 t"
b10 E
b10 q
b10 s"
b1 L
b1 z
b1 ~
b0 /
b0 x"
b1 .
b1 w"
b1 !#
b1 %#
b0 3
b0 5"
b0 V"
b100 S
b100 p"
b1 c
b1 F"
b1 H"
0X
b0 A"
b10 p
b1 Q
b1 r
b1 x
b1 D"
b1 Y"
b10 H
b10 8"
b10 _"
b1 B
b1 N"
b1 Q"
b1 ~"
b1 $#
b1 J
b1 :"
b0 Z
b0 U"
b100101000000 1
b100101000000 %"
b10 I
b10 l
b10 ]"
b1 ]
b1 ("
b1 W"
b1 ^"
b1 l"
b11 2
b11 $"
b11 3"
b11 6"
b10 k
b1 K
b1 n
b1 '"
b1 7"
b1 9"
1,
1(
1#
#115000
0,
0(
0#
#120000
0T
0P
0b
b0 7
b0 1"
b0 2"
b0 6
b0 ""
b0 ["
b110100 L
b110100 z
b110100 ~
b0 =
b0 d"
b0 }"
b0 :
b0 c"
b0 ##
b11001100 D
b11001100 B"
b11001100 t"
1C"
b0 @
b0 u"
b110100 E
b110100 q
b110100 s"
b110100 /
b110100 x"
b110100 .
b110100 w"
b0 -
b0 v"
b10 8
b10 /"
1O
0g
b0 5
b0 f
b0 M"
b0 {"
b0 ?
b0 e"
b0 y"
b100 !#
b100 %#
1G"
0M
b0 L"
b0 U
b0 ."
b0 K"
b11 3
b11 5"
b11 V"
b110100 Q
b110100 r
b110100 x
b110100 D"
b110100 Y"
b11 H
b11 8"
b11 _"
b111001100 A"
b0 >
b0 w
b110100 p
b0 R
b0 s
b0 y
b0 E"
b0 P"
b0 S"
b0 q"
b0 r"
b0 |"
b0 "#
b0 A
b0 O"
b0 `"
b100 B
b100 N"
b100 Q"
b100 ~"
b100 $#
b100 J
b100 :"
b11 Z
b11 U"
b0 S
b0 p"
b0 c
b0 F"
b0 H"
1X
b11 I
b11 l
b11 ]"
b110100 ]
b110100 ("
b110100 W"
b110100 ^"
b110100 l"
b100100000 1
b100100000 %"
b11 k
b10 K
b10 n
b10 '"
b10 7"
b10 9"
b0 2
b0 $"
b0 3"
b0 6"
b1 `
b1 )"
b1 i"
b1 _
b1 *"
b1 X"
b1 m"
1,
1(
1#
#125000
0,
0(
0#
#130000
b10 U
b10 ."
b10 K"
b1000 =
b1000 d"
b1000 }"
b10000000 :
b10000000 c"
b10000000 ##
b1000 ?
b1000 e"
b1000 y"
0C"
b100 @
b100 u"
b10 -
b10 v"
b110100 6
b110100 ""
b110100 ["
b0 8
b0 /"
0O
1g
b10 5
b10 f
b10 M"
b10 {"
b1000 A
b1000 O"
b1000 `"
b100 >
b100 w
b10 R
b10 s
b10 y
b10 E"
b10 P"
b10 S"
b10 q"
b10 r"
b10 |"
b10 "#
0G"
1M
b0 D
b0 B"
b0 t"
b100 E
b100 q
b100 s"
b10 L
b10 z
b10 ~
b0 /
b0 x"
b10 .
b10 w"
b10 !#
b10 %#
b0 3
b0 5"
b0 V"
b100 S
b100 p"
b1 c
b1 F"
b1 H"
0X
b0 A"
b100 p
b10 Q
b10 r
b10 x
b10 D"
b10 Y"
b100 H
b100 8"
b100 _"
b10 B
b10 N"
b10 Q"
b10 ~"
b10 $#
b10 J
b10 :"
b0 Z
b0 U"
b100101000000 1
b100101000000 %"
b100 I
b100 l
b100 ]"
b10 ]
b10 ("
b10 W"
b10 ^"
b10 l"
bx `
bx )"
bx i"
b1 W
b1 +"
b1 -"
b11 2
b11 $"
b11 3"
b11 6"
b100 k
b11 K
b11 n
b11 '"
b11 7"
b11 9"
b100 F
b100 ;"
b100 <"
1,
1(
1#
#135000
0,
0(
0#
#140000
b0 6
b0 ""
b0 ["
b111000 L
b111000 z
b111000 ~
b0 =
b0 d"
b0 }"
b0 :
b0 c"
b0 ##
b11001000 D
b11001000 B"
b11001000 t"
1C"
b0 @
b0 u"
b111000 E
b111000 q
b111000 s"
b111000 /
b111000 x"
b111000 .
b111000 w"
b0 -
b0 v"
b10 8
b10 /"
1O
0g
b0 5
b0 f
b0 M"
b0 {"
b0 ?
b0 e"
b0 y"
b0 !#
b0 %#
1G"
0M
b0 L"
b0 U
b0 ."
b0 K"
b11 3
b11 5"
b11 V"
b111000 Q
b111000 r
b111000 x
b111000 D"
b111000 Y"
b101 H
b101 8"
b101 _"
b111001000 A"
b0 >
b0 w
b111000 p
b0 R
b0 s
b0 y
b0 E"
b0 P"
b0 S"
b0 q"
b0 r"
b0 |"
b0 "#
b0 A
b0 O"
b0 `"
b1000 B
b1000 N"
b1000 Q"
b1000 ~"
b1000 $#
b1000 J
b1000 :"
b11 Z
b11 U"
b0 S
b0 p"
b0 c
b0 F"
b0 H"
1X
b101 I
b101 l
b101 ]"
b111000 ]
b111000 ("
b111000 W"
b111000 ^"
b111000 l"
b100100000 1
b100100000 %"
b101 k
b100 K
b100 n
b100 '"
b100 7"
b100 9"
b0 2
b0 $"
b0 3"
b0 6"
b10 `
b10 )"
b10 i"
1,
1(
1#
#145000
0,
0(
0#
#150000
b10000000 U
b10000000 ."
b10000000 K"
b10000000 =
b10000000 d"
b10000000 }"
b10000000 :
b10000000 c"
b10000000 ##
b10000000 ?
b10000000 e"
b10000000 y"
0C"
1a
b10000000 -
b10000000 v"
b110000 6
b110000 ""
b110000 ["
b110000 [
b110000 \"
b110000 j"
b101 8
b101 /"
0O
1g
b10000000 5
b10000000 f
b10000000 M"
b10000000 {"
b10000000 <
b10000000 R"
b10000000 a"
b10000000 A
b10000000 O"
b10000000 `"
b100000000000000 >
b100000000000000 w
b10000000 R
b10000000 s
b10000000 y
b10000000 E"
b10000000 P"
b10000000 S"
b10000000 q"
b10000000 r"
b10000000 |"
b10000000 "#
0G"
1M
b0 D
b0 B"
b0 t"
b0 E
b0 q
b0 s"
b0 L
b0 z
b0 ~
1;
b0 /
b0 x"
b10000000 .
b10000000 w"
b0 3
b0 5"
b0 V"
b100 S
b100 p"
b1 c
b1 F"
b1 H"
0X
b0 A"
b100000000 p
b10000000 Q
b10000000 r
b10000000 x
b10000000 D"
b10000000 Y"
b110 H
b110 8"
b110 _"
b0 B
b0 N"
b0 Q"
b0 ~"
b0 $#
b0 J
b0 :"
b1000 Z
b1000 U"
b100101000000 1
b100101000000 %"
b110 I
b110 l
b110 ]"
b10000000 ]
b10000000 ("
b10000000 W"
b10000000 ^"
b10000000 l"
bx `
bx )"
bx i"
b10 W
b10 +"
b10 -"
b11 2
b11 $"
b11 3"
b11 6"
b110 k
b101 K
b101 n
b101 '"
b101 7"
b101 9"
b1000 F
b1000 ;"
b1000 <"
1,
1(
1#
#155000
0,
0(
0#
#160000
1T
1b
b101 7
b101 1"
b101 2"
1)
b1 6
b1 ""
b1 ["
bx [
bx \"
bx j"
b1 L
b1 z
b1 ~
0;
b0 =
b0 d"
b0 }"
b0 :
b0 c"
b0 ##
b11111111 D
b11111111 B"
b11111111 t"
1C"
b1 E
b1 q
b1 s"
0a
b1 /
b1 x"
b1 .
b1 w"
b0 -
b0 v"
b10 8
b10 /"
1O
0g
b0 5
b0 f
b0 M"
b0 {"
b0 ?
b0 e"
b0 y"
b1 !#
b1 %#
1G"
0M
b0 L"
b0 U
b0 ."
b0 K"
b1 Q
b1 r
b1 x
b1 D"
b1 Y"
b111 H
b111 8"
b111 _"
b111111111 A"
b0 >
b0 w
b1 p
b0 R
b0 s
b0 y
b0 E"
b0 P"
b0 S"
b0 q"
b0 r"
b0 |"
b0 "#
b0 A
b0 O"
b0 `"
b0 <
b0 R"
b0 a"
b1 B
b1 N"
b1 Q"
b1 ~"
b1 $#
b1 J
b1 :"
b0 Z
b0 U"
b0 S
b0 p"
b0 c
b0 F"
b0 H"
1X
b111 I
b111 l
b111 ]"
b1 ]
b1 ("
b1 W"
b1 ^"
b1 l"
b100100000 1
b100100000 %"
b111 k
b110 K
b110 n
b110 '"
b110 7"
b110 9"
b0 2
b0 $"
b0 3"
b0 6"
b10000000 `
b10000000 )"
b10000000 i"
1,
1(
1#
#165000
0,
0(
0#
#170000
0)
b110100 6
b110100 ""
b110100 ["
bx [
bx \"
bx j"
b1001 3
b1001 5"
b1001 V"
1&
b11111110 D
b11111110 B"
b11111110 t"
b10 E
b10 q
b10 s"
b10 L
b10 z
b10 ~
0;
b10 /
b10 x"
b10 .
b10 w"
b1000 H
b1000 8"
b1000 _"
b1001 Z
b1001 U"
b111111110 A"
b10 p
b10 Q
b10 r
b10 x
b10 D"
b10 Y"
b1000 I
b1000 l
b1000 ]"
b10010001 ]
b10010001 ("
b10010001 W"
b10010001 ^"
b10010001 l"
b1 `
b1 )"
b1 i"
b0 W
b0 +"
b0 -"
b10 _
b10 *"
b10 X"
b10 m"
b1 V
b1 ,"
b1 b"
b1 g"
b1000 k
b111 K
b111 n
b111 '"
b111 7"
b111 9"
b1 F
b1 ;"
b1 <"
1,
1(
1#
#175000
0,
0(
0#
#180000
0'
b11 U
b11 ."
b11 K"
b10000 =
b10000 d"
b10000 }"
b10000 :
b10000 c"
b10000 ##
b11111111 D
b11111111 B"
b11111111 t"
b10 @
b10 u"
b11 E
b11 q
b11 s"
b11 /
b11 x"
b11 .
b11 w"
b100 !#
b100 %#
b0 8
b0 /"
0O
1g
b11 5
b11 f
b11 M"
b11 {"
0G"
1M
b0 3
b0 5"
b0 V"
b1001 H
b1001 8"
b1001 _"
b10000 A
b10000 O"
b10000 `"
b111111111 A"
b10 >
b10 w
b11 p
b1 R
b1 s
b1 y
b1 E"
b1 P"
b1 S"
b1 q"
b1 r"
b1 |"
b1 "#
b100 B
b100 N"
b100 Q"
b100 ~"
b100 $#
b100 J
b100 :"
b1 d
b1 z"
b1 S
b1 p"
b1 c
b1 F"
b1 H"
0X
b1001 I
b1001 l
b1001 ]"
b10010100 ]
b10010100 ("
b10010100 W"
b10010100 ^"
b10010100 l"
b10001101010000 1
b10001101010000 %"
b1001 k
b1000 K
b1000 n
b1000 '"
b1000 7"
b1000 9"
b1001 2
b1001 $"
b1001 3"
b1001 6"
1,
1(
1#
#185000
0,
0(
0#
#190000
09
0T
0b
b0 7
b0 1"
b0 2"
1'
b10 .
b10 w"
b10 8
b10 /"
1O
0g
b0 5
b0 f
b0 M"
b0 {"
1G"
0M
b0 L"
b0 U
b0 ."
b0 K"
b1001 3
b1001 5"
b1001 V"
b0 =
b0 d"
b0 }"
b0 :
b0 c"
b0 ##
b11111110 D
b11111110 B"
b11111110 t"
1C"
b0 @
b0 u"
b10 E
b10 q
b10 s"
b10 /
b10 x"
b0 -
b0 v"
b0 d
b0 z"
b0 S
b0 p"
b0 c
b0 F"
b0 H"
1X
b0 A
b0 O"
b0 `"
b111111110 A"
b0 >
b0 w
b10 p
b0 R
b0 s
b0 y
b0 E"
b0 P"
b0 S"
b0 q"
b0 r"
b0 |"
b0 "#
b100100000 1
b100100000 %"
b11 `
b11 )"
b11 i"
b0 2
b0 $"
b0 3"
b0 6"
1,
1(
1#
#195000
0,
0(
0#
#200000
0C"
1'
b1 6
b1 ""
b1 ["
b11 U
b11 ."
b11 K"
0&
b1 L
b1 z
b1 ~
b100 =
b100 d"
b100 }"
b1 :
b1 c"
b1 ##
b1 D
b1 B"
b1 t"
b10 @
b10 u"
b11 E
b11 q
b11 s"
b11 /
b11 x"
b11 .
b11 w"
b0 -
b0 v"
b1 !#
b1 %#
b0 8
b0 /"
0O
1g
b11 5
b11 f
b11 M"
b11 {"
0G"
1M
b0 3
b0 5"
b0 V"
b100 ?
b100 e"
b100 y"
19
b1 Q
b1 r
b1 x
b1 D"
b1 Y"
b1010 H
b1010 8"
b1010 _"
b1 <
b1 R"
b1 a"
b100 A
b100 O"
b100 `"
b1 A"
b10 >
b10 w
b11 p
b10 R
b10 s
b10 y
b10 E"
b10 P"
b10 S"
b10 q"
b10 r"
b10 |"
b10 "#
b1 B
b1 N"
b1 Q"
b1 ~"
b1 $#
b1 J
b1 :"
b0 Z
b0 U"
b1 d
b1 z"
b1 S
b1 p"
b1 c
b1 F"
b1 H"
0X
b10 `
b10 )"
b10 i"
b1 W
b1 +"
b1 -"
b11 _
b11 *"
b11 X"
b11 m"
b0 V
b0 ,"
b0 b"
b0 g"
b1010 I
b1010 l
b1010 ]"
b1 ]
b1 ("
b1 W"
b1 ^"
b1 l"
b10001101010000 1
b10001101010000 %"
b100 F
b100 ;"
b100 <"
b1010 k
b1001 K
b1001 n
b1001 '"
b1001 7"
b1001 9"
b1001 2
b1001 $"
b1001 3"
b1001 6"
1,
1(
1#
#205000
0,
0(
0#
#210000
0)
b0 6
b0 ""
b0 ["
b0 [
b0 \"
b0 j"
b10 8
b10 /"
1O
0g
b0 5
b0 f
b0 M"
b0 {"
1G"
0M
b0 L"
b0 U
b0 ."
b0 K"
1C"
b1111001 L
b1111001 z
b1111001 ~
1;
b1111 3
b1111 5"
b1111 V"
b0 =
b0 d"
b0 }"
b0 :
b0 c"
b0 ##
b0 ?
b0 e"
b0 y"
b111 D
b111 B"
b111 t"
b0 @
b0 u"
b11111001 E
b11111001 q
b11111001 s"
b11111001 /
b11111001 x"
b11111001 .
b11111001 w"
b0 -
b0 v"
b0 d
b0 z"
b0 S
b0 p"
b0 c
b0 F"
b0 H"
1X
b11111001 Q
b11111001 r
b11111001 x
b11111001 D"
b11111001 Y"
b1011 H
b1011 8"
b1011 _"
b0 <
b0 R"
b0 a"
b1001 B
b1001 N"
b1001 Q"
b1001 ~"
b1001 $#
b1001 J
b1001 :"
b1111 Z
b1111 U"
b0 A
b0 O"
b0 `"
b100000111 A"
b0 >
b0 w
b11111001 p
b0 R
b0 s
b0 y
b0 E"
b0 P"
b0 S"
b0 q"
b0 r"
b0 |"
b0 "#
b100100000 1
b100100000 %"
b1011 I
b1011 l
b1011 ]"
b11111001 ]
b11111001 ("
b11111001 W"
b11111001 ^"
b11111001 l"
b11 `
b11 )"
b11 i"
b0 2
b0 $"
b0 3"
b0 6"
b1011 k
b1010 K
b1010 n
b1010 '"
b1010 7"
b1010 9"
1,
1(
1#
#215000
0,
0(
0#
#220000
b10 6
b10 ""
b10 ["
bx [
bx \"
bx j"
b1000000 U
b1000000 ."
b1000000 K"
1&
0C"
b11 L
b11 z
b11 ~
0;
b1 =
b1 d"
b1 }"
b1000000 :
b1000000 c"
b1000000 ##
b1111101 D
b1111101 B"
b1111101 t"
b10000000 @
b10000000 u"
b10000011 E
b10000011 q
b10000011 s"
b10000011 /
b10000011 x"
b10000011 .
b10000011 w"
b0 8
b0 /"
0O
1g
b1000000 5
b1000000 f
b1000000 M"
b1000000 {"
0G"
1M
b0 3
b0 5"
b0 V"
b1000000 ?
b1000000 e"
b1000000 y"
09
b11 Q
b11 r
b11 x
b11 D"
b11 Y"
b1100 H
b1100 8"
b1100 _"
b1000000 <
b1000000 R"
b1000000 a"
b1111101 A"
b110000000 >
b110000000 w
b10000011 p
b10000000 R
b10000000 s
b10000000 y
b10000000 E"
b10000000 P"
b10000000 S"
b10000000 q"
b10000000 r"
b10000000 |"
b10000000 "#
b1 B
b1 N"
b1 Q"
b1 ~"
b1 $#
b1 J
b1 :"
b0 Z
b0 U"
b111 d
b111 z"
b1 S
b1 p"
b1 c
b1 F"
b1 H"
0X
b10000000 `
b10000000 )"
b10000000 i"
b10 W
b10 +"
b10 -"
b1 V
b1 ,"
b1 b"
b1 g"
b1100 I
b1100 l
b1100 ]"
b1 ]
b1 ("
b1 W"
b1 ^"
b1 l"
b1110001101000000 1
b1110001101000000 %"
b1001 F
b1001 ;"
b1001 <"
b1100 k
b1011 K
b1011 n
b1011 '"
b1011 7"
b1011 9"
b1111 2
b1111 $"
b1111 3"
b1111 6"
1,
1(
1#
#225000
0,
0(
0#
#230000
1C"
b10 8
b10 /"
1O
0g
b0 5
b0 f
b0 M"
b0 {"
1G"
0M
b0 L"
b0 U
b0 ."
b0 K"
b10 !#
b10 %#
b1 3
b1 5"
b1 V"
b0 =
b0 d"
b0 }"
b0 :
b0 c"
b0 ##
b0 ?
b0 e"
b0 y"
b11111101 D
b11111101 B"
b11111101 t"
b0 @
b0 u"
b11 E
b11 q
b11 s"
b11 /
b11 x"
b11 .
b11 w"
b0 d
b0 z"
b0 S
b0 p"
b0 c
b0 F"
b0 H"
1X
b1101 H
b1101 8"
b1101 _"
b10 B
b10 N"
b10 Q"
b10 ~"
b10 $#
b10 J
b10 :"
b1 Z
b1 U"
b0 <
b0 R"
b0 a"
b0 A
b0 O"
b0 `"
b111111101 A"
b0 >
b0 w
b11 p
b0 R
b0 s
b0 y
b0 E"
b0 P"
b0 S"
b0 q"
b0 r"
b0 |"
b0 "#
b100100000 1
b100100000 %"
b1101 I
b1101 l
b1101 ]"
b10010 ]
b10010 ("
b10010 W"
b10010 ^"
b10010 l"
b1000000 `
b1000000 )"
b1000000 i"
b0 2
b0 $"
b0 3"
b0 6"
b1101 k
b1100 K
b1100 n
b1100 '"
b1100 7"
b1100 9"
1,
1(
1#
#235000
0,
0(
0#
